…
``` r
print(
  doc_scores_all |>
    dplyr::filter(stringr::str_detect(tolower(corpus), "long")) |>
    dplyr::select(doc_id, corpus, author, ic) |>
    head(30)
)
```

```
## # A tibble: 30 x 4
##    doc_id                                                    corpus author    ic
##    <chr>                                                     <chr>  <chr>  <dbl>
##  1 1160kennedyichbin                                         non_l~ <NA>    2.08
##  2 142thunberg                                               non_l~ <NA>    2.14
##  3 1945labourpartymanifesto                                  non_l~ <NA>    2.01
##  4 1949simonedebeauvoirthesecondsex                          non_l~ <NA>    5.37
##  5 acontributiontothehistoryofthenationalprogrammeinaustria~ longi~ lenin   2.22
##  6 adisgracefulresolution10181912                            longi~ lenin   2.38
##  7 ahouseofmanymansions1940                                  longi~ churc~  1.87
##  8 ahushovereurope1939                                       longi~ churc~  1.72
##  9 anewchapterofworldhistory10211912                         longi~ lenin   2.81
## 10 addresstojointsessionofuscongress1941                     longi~ churc~  1.84
## # i 20 more rows
```
…
The regression model predicting martyrdom narratives was statistically significant, F(2, 28) = 3.94, *p* = .031, R² = .22. Violent self-sacrificial manifestos exhibited significantly higher levels of martyrdom narrative markers compared with moderate texts (*b* = 0.47, SE = 0.19, *t* = 2.50, *p* = .019). In contrast, ideologically extreme manifestos did not differ significantly from moderate manifestos in martyrdom language (*b* = 0.05, SE = 0.17, *t* = 0.28, *p* = .780). 

### Hopelessness 

The regression model predicting hopelessness markers was not statistically significant overall, F(2, 28) = 2.48, *p* = .102, R² = .15. Neither ideologically extreme manifestos (*b* = 1.75, SE = 1.25, *t* = 1.41, *p* = .171) nor violent manifestos (*b* = -0.93, SE = 1.36, *t* = -0.69, *p* = .497) differed significantly from moderate manifestos in the prevalence of hopelessness language. 

### Summary of Findings 

Across models, manifesto category predicted significant differences in two linguistic domains: dyadic harm language and martyrdom narratives. Both ideologically extreme and violent manifestos contained higher levels of dyadic harm language relative to moderate texts, suggesting that framing political issues in terms of intentional harm and victimization may be characteristic of more radical ideological writing. Additionally, violent self-sacrificial manifestos displayed significantly greater use of martyrdom narratives than moderate texts, indicating that rhetorical appeals to sacrifice and heroism may play an important role in texts associated with political violence.

## Longitudinal Analyses


```
## # A tibble: 194 x 3
##    author    doc_id                                                  doc_date  
##    <chr>     <chr>                                                   <date>    
##  1 churchill bolshevismandimperialsedition1920                       1920-01-01
##  2 churchill masseffectsinmodernlife1925                             1925-01-01
##  3 churchill fiftyyearshence1931                                     1931-01-01
##  4 churchill pennyintheslotpolitics1934                              1934-01-01
##  5 churchill ihavewatchedthisfamousisland1938                        1938-01-01
##  6 churchill thelightsaregoingoutwemustarm1938                       1938-01-01
##  7 churchill ahushovereurope1939                                     1939-01-01
##  8 churchill warspeech1939                                           1939-01-01
##  9 churchill ahouseofmanymansions1940                                1940-01-01
## 10 churchill beyemenofvalour1940                                     1940-01-01
## 11 churchill bloodtoiltearsandsweat1940                              1940-01-01
## 12 churchill everymantohispost1940                                   1940-01-01
## 13 churchill thefew1940                                              1940-01-01
## 14 churchill theirfinesthour1940                                     1940-01-01
## 15 churchill waroftheunknownwarriors1940                             1940-01-01
## 16 churchill weshallfightonthebeaches1940                            1940-01-01
## 17 churchill addresstojointsessionofuscongress1941                   1941-01-01
## 18 churchill doyourworstwelldoourbest1941                            1941-01-01
## 19 churchill giveusthetools1941                                      1941-01-01
## 20 churchill nevergiveinnevernevernever1941                          1941-01-01
## 21 churchill somechickensomeneck1941                                 1941-01-01
## 22 churchill thefourthclimacteric1941                                1941-01-01
## 23 churchill theoldlion1941                                          1941-01-01
## 24 churchill winstonchurchillsbroadcastonthesovietgermanwar1941      1941-01-01
## 25 churchill theinvasionoffrance1944                                 1944-01-01
## 26 churchill thesinewsofpeace1946                                    1946-01-01
## 27 churchill mitmidcenturyconvocation1949                            1949-01-01
## 28 churchill thecouncilofeurope1949                                  1949-01-01
## 29 evola     decadence1928                                           1928-01-01
## 30 evola     fascism1928                                             1928-01-01
## 31 evola     darkage1934                                             1934-01-01
## 32 evola     jihad1934                                               1934-01-01
## 33 evola     degeneration1938                                        1938-01-01
## 34 evola     neopagans1942                                           1942-01-01
## 35 evola     americancivilization1945                                1945-01-01
## 36 evola     occult1953                                              1953-01-01
## 37 gramsci   theeventsof23december19191261319                        1319-01-01
## 38 gramsci   newspapersandtheworkers12221916                         1916-12-22
## 39 gramsci   menormachines12241916                                   1916-12-24
## 40 gramsci   character331917                                         1917-03-03
## 41 gramsci   therevolutionagainstcapital12241917                     1917-12-24
## 42 gramsci   oneyearofhistory3161918                                 1918-03-16
## 43 gramsci   redink441919                                            1919-04-04
## 44 gramsci   thepriceofhistory671919                                 1919-06-07
## 45 gramsci   workersdemocracy6211919                                 1919-06-21
## 46 gramsci   theconquestofthestate7121919                            1919-07-12
## 47 gramsci   workersandpeasants821919                                1919-08-02
## 48 gramsci   tothesectioncommissarsofthefiatbrevettiworkshops9131919 1919-09-13
## 49 gramsci   chroniclesoftheneworder9131919                          1919-09-13
## 50 gramsci   thedevelopmentoftherevolution9131919                    1919-09-13
## # i 144 more rows
```
…
